…
Set Up

Data Frame Packages

library(tidyverse) # includes {dplyr}

import pandas as pd

Data

library(gapminder)

(df <- gapminder %>% rename(population = pop)) # pandas uses pop() as a method

## # A tibble: 1,704 x 6
##    country     continent  year lifeExp population gdpPercap
##    <fct>       <fct>     <int>   <dbl>      <int>     <dbl>
##  1 Afghanistan Asia       1952    28.8    8425333      779.
##  2 Afghanistan Asia       1957    30.3    9240934      821.
##  3 Afghanistan Asia       1962    32.0   10267083      853.
##  4 Afghanistan Asia       1967    34.0   11537966      836.
##  5 Afghanistan Asia       1972    36.1   13079460      740.
##  6 Afghanistan Asia       1977    38.4   14880372      786.
##  7 Afghanistan Asia       1982    39.9   12881816      978.
##  8 Afghanistan Asia       1987    40.8   13867957      852.
##  9 Afghanistan Asia       1992    41.7   16317921      649.
## 10 Afghanistan Asia       1997    41.8   22227415      635.
## # ... with 1,694 more rows
…
Basic Example: Select Columns by Name

df %>% select(country, population)

## # A tibble: 1,704 x 2
##    country     population
##    <fct>            <int>
##  1 Afghanistan    8425333
##  2 Afghanistan    9240934
##  3 Afghanistan   10267083
##  4 Afghanistan   11537966
##  5 Afghanistan   13079460
##  6 Afghanistan   14880372
##  7 Afghanistan   12881816
##  8 Afghanistan   13867957
##  9 Afghanistan   16317921
## 10 Afghanistan   22227415
## # ... with 1,694 more rows
…
Drop Columns by Name

df %>% select(-country, -population)

## # A tibble: 1,704 x 4
##    continent  year lifeExp gdpPercap
##    <fct>     <int>   <dbl>     <dbl>
##  1 Asia       1952    28.8      779.
##  2 Asia       1957    30.3      821.
##  3 Asia       1962    32.0      853.
##  4 Asia       1967    34.0      836.
##  5 Asia       1972    36.1      740.
##  6 Asia       1977    38.4      786.
##  7 Asia       1982    39.9      978.
##  8 Asia       1987    40.8      852.
##  9 Asia       1992    41.7      649.
## 10 Asia       1997    41.8      635.
## # ... with 1,694 more rows
…
Select Columns by Name Range

df %>% select(lifeExp:gdpPercap)

## # A tibble: 1,704 x 3
##    lifeExp population gdpPercap
##      <dbl>      <int>     <dbl>
##  1    28.8    8425333      779.
##  2    30.3    9240934      821.
##  3    32.0   10267083      853.
##  4    34.0   11537966      836.
##  5    36.1   13079460      740.
##  6    38.4   14880372      786.
##  7    39.9   12881816      978.
##  8    40.8   13867957      852.
##  9    41.7   16317921      649.
## 10    41.8   22227415      635.
## # ... with 1,694 more rows
…
Drop Columns by Name Range

df %>% select(-(lifeExp:gdpPercap))

## # A tibble: 1,704 x 3
##    country     continent  year
##    <fct>       <fct>     <int>
##  1 Afghanistan Asia       1952
##  2 Afghanistan Asia       1957
##  3 Afghanistan Asia       1962
##  4 Afghanistan Asia       1967
##  5 Afghanistan Asia       1972
##  6 Afghanistan Asia       1977
##  7 Afghanistan Asia       1982
##  8 Afghanistan Asia       1987
##  9 Afghanistan Asia       1992
## 10 Afghanistan Asia       1997
## # ... with 1,694 more rows
…
Select Columns by Index Range

df %>% select(2:4)

## # A tibble: 1,704 x 3
##    continent  year lifeExp
##    <fct>     <int>   <dbl>
##  1 Asia       1952    28.8
##  2 Asia       1957    30.3
##  3 Asia       1962    32.0
##  4 Asia       1967    34.0
##  5 Asia       1972    36.1
##  6 Asia       1977    38.4
##  7 Asia       1982    39.9
##  8 Asia       1987    40.8
##  9 Asia       1992    41.7
## 10 Asia       1997    41.8
## # ... with 1,694 more rows
…
Drop Columns by Index Range

df %>% select(-(2:4))

## # A tibble: 1,704 x 3
##    country     population gdpPercap
##    <fct>            <int>     <dbl>
##  1 Afghanistan    8425333      779.
##  2 Afghanistan    9240934      821.
##  3 Afghanistan   10267083      853.
##  4 Afghanistan   11537966      836.
##  5 Afghanistan   13079460      740.
##  6 Afghanistan   14880372      786.
##  7 Afghanistan   12881816      978.
##  8 Afghanistan   13867957      852.
##  9 Afghanistan   16317921      649.
## 10 Afghanistan   22227415      635.
## # ... with 1,694 more rows
…
Filter Rows, Single Logical Comparison

df %>% filter(gdpPercap < 500)

## # A tibble: 63 x 6
##    country  continent  year lifeExp population gdpPercap
##    <fct>    <fct>     <int>   <dbl>      <int>     <dbl>
##  1 Burundi  Africa     1952    39.0    2445618      339.
##  2 Burundi  Africa     1957    40.5    2667518      380.
##  3 Burundi  Africa     1962    42.0    2961915      355.
##  4 Burundi  Africa     1967    43.5    3330989      413.
##  5 Burundi  Africa     1972    44.1    3529983      464.
##  6 Burundi  Africa     1997    45.3    6121610      463.
##  7 Burundi  Africa     2002    47.4    7021078      446.
##  8 Burundi  Africa     2007    49.6    8390505      430.
##  9 Cambodia Asia       1952    39.4    4693836      368.
## 10 Cambodia Asia       1957    41.4    5322536      434.
## # ... with 53 more rows
…
res = df[(df.population < 10000) | (df.gdpPercap > 100000)]
#
print(res.head(10))

##     country continent  year  lifeExp  population    gdpPercap
## 852  Kuwait      Asia  1952   55.565      160000  108382.3529
## 853  Kuwait      Asia  1957   58.033      212846  113523.1329
## 856  Kuwait      Asia  1972   67.712      841934  109347.8670

df %>% filter(year == 1997 & continent == "Europe") # dplyr can use either `,` or `&` for "and"

## # A tibble: 30 x 6
##    country                continent  year lifeExp population gdpPercap
##    <fct>                  <fct>     <int>   <dbl>      <int>     <dbl>
##  1 Albania                Europe     1997    73.0    3428038     3193.
##  2 Austria                Europe     1997    77.5    8069876    29096.
##  3 Belgium                Europe     1997    77.5   10199787    27561.
##  4 Bosnia and Herzegovina Europe     1997    73.2    3607000     4766.
##  5 Bulgaria               Europe     1997    70.3    8066057     5970.
##  6 Croatia                Europe     1997    73.7    4444595     9876.
##  7 Czech Republic         Europe     1997    74.0   10300707    16049.
##  8 Denmark                Europe     1997    76.1    5283663    29804.
##  9 Finland                Europe     1997    77.1    5134406    23724.
## 10 France                 Europe     1997    78.6   58623428    25890.
## # ... with 20 more rows
…
Basic Example: Calculate Population in Thousands

df %>% 
  select(population) %>% 
  mutate(pop_in_thousands = population / 1000) 

## # A tibble: 1,704 x 2
##    population pop_in_thousands
##         <int>            <dbl>
##  1    8425333            8425.
##  2    9240934            9241.
##  3   10267083           10267.
##  4   11537966           11538.
##  5   13079460           13079.
##  6   14880372           14880.
##  7   12881816           12882.
##  8   13867957           13868.
##  9   16317921           16318.
## 10   22227415           22227.
## # ... with 1,694 more rows
…
Calculate Total GDP

df %>%
  select(population, gdpPercap) %>% 
  mutate(total_GDP = population * gdpPercap)

## # A tibble: 1,704 x 3
##    population gdpPercap    total_GDP
##         <int>     <dbl>        <dbl>
##  1    8425333      779.  6567086330.
##  2    9240934      821.  7585448670.
##  3   10267083      853.  8758855797.
##  4   11537966      836.  9648014150.
##  5   13079460      740.  9678553274.
##  6   14880372      786. 11697659231.
##  7   12881816      978. 12598563401.
##  8   13867957      852. 11820990309.
##  9   16317921      649. 10595901589.
## 10   22227415      635. 14121995875.
## # ... with 1,694 more rows
…
\[ z = \frac {x_i -\mu_x} {\sigma_x}\]

\(x\) = gdpPercap

\(\mu_x\) = the mean of \(x\) = mean(gdpPercap) or gdpPercap.mean()

\(\sigma_x\) = the standard deviation of x = sd(gdpPercap) or gdpPercap.std()

df %>% 
  filter(year == 1977) %>%
  select(gdpPercap) %>% 
  mutate(gdp_per_cap_z_score = (gdpPercap - mean(gdpPercap)) / sd(gdpPercap))

## # A tibble: 142 x 2
##    gdpPercap gdp_per_cap_z_score
##        <dbl>               <dbl>
##  1      786.              -0.781
##  2     3533.              -0.452
##  3     4910.              -0.287
##  4     3009.              -0.515
##  5    10079.               0.331
##  6    18334.               1.32 
##  7    19749.               1.49 
##  8    19340.               1.44 
##  9      660.              -0.796
## 10    19118.               1.41 
## # ... with 132 more rows
…
